#######################################
# Syntax Coloring Map For RioPhoneHack
#######################################

#######################################
# Datatypes (KEYWORD1)
#######################################

RioPhoneHack	KEYWORD1

#######################################
# Methods and Functions (KEYWORD2)
#######################################

on	KEYWORD2
off	KEYWORD2
blink	KEYWORD2

#######################################
# Constants (LITERAL1)
#######################################

